G04 #@! TF.GenerationSoftware,KiCad,Pcbnew,(5.1.5)-3*
G04 #@! TF.CreationDate,2020-03-11T13:39:39+01:00*
G04 #@! TF.ProjectId,USS-Emmental_V1b,5553532d-456d-46d6-956e-74616c5f5631,rev?*
G04 #@! TF.SameCoordinates,Original*
G04 #@! TF.FileFunction,Profile,NP*
%FSLAX46Y46*%
G04 Gerber Fmt 4.6, Leading zero omitted, Abs format (unit mm)*
G04 Created by KiCad (PCBNEW (5.1.5)-3) date 2020-03-11 13:39:39*
%MOMM*%
%LPD*%
G04 APERTURE LIST*
%ADD10C,0.010000*%
G04 APERTURE END LIST*
D10*
X104915000Y-53255000D02*
G75*
G02X106115000Y-52055000I1200000J0D01*
G01*
X195085000Y-146745000D02*
G75*
G02X193885000Y-147945000I-1200000J0D01*
G01*
X195085000Y-76240000D02*
X195085000Y-89365000D01*
X106835000Y-91065000D02*
X106835000Y-108935000D01*
X105635000Y-89865000D02*
X105415000Y-89865000D01*
X105635000Y-110135000D02*
X105415000Y-110135000D01*
X105635000Y-89865000D02*
G75*
G02X106835000Y-91065000I0J-1200000D01*
G01*
X106835000Y-108935000D02*
G75*
G02X105635000Y-110135000I-1200000J0D01*
G01*
X104915000Y-89365000D02*
X104915000Y-53255000D01*
X104915000Y-110635000D02*
X104915000Y-146745000D01*
X105415000Y-89865000D02*
G75*
G02X104915000Y-89365000I0J500000D01*
G01*
X104915000Y-110635000D02*
G75*
G02X105415000Y-110135000I500000J0D01*
G01*
X193165000Y-91065000D02*
X193165000Y-108935000D01*
X194365000Y-89865000D02*
X194585000Y-89865000D01*
X194365000Y-110135000D02*
X194585000Y-110135000D01*
X193165000Y-91065000D02*
G75*
G02X194365000Y-89865000I1200000J0D01*
G01*
X194365000Y-110135000D02*
G75*
G02X193165000Y-108935000I0J1200000D01*
G01*
X194585000Y-110135000D02*
G75*
G02X195085000Y-110635000I0J-500000D01*
G01*
X195085000Y-110635000D02*
X195085000Y-146745000D01*
X195085000Y-89365000D02*
G75*
G02X194585000Y-89865000I-500000J0D01*
G01*
X142185000Y-54985000D02*
X160105000Y-54985000D01*
X161305000Y-53785000D02*
X161305000Y-52555000D01*
X161805000Y-52055000D02*
X189300000Y-52055000D01*
X140485000Y-52055000D02*
X106115000Y-52055000D01*
X161805000Y-147945000D02*
X193885000Y-147945000D01*
X140985000Y-146215000D02*
X140985000Y-147445000D01*
X161305000Y-146215000D02*
X161305000Y-147445000D01*
X142185000Y-145015000D02*
X160105000Y-145015000D01*
X189300000Y-52055000D02*
X193885000Y-52055000D01*
X195085000Y-53255000D02*
X195085000Y-76240000D01*
X193885000Y-52055000D02*
G75*
G02X195085000Y-53255000I0J-1200000D01*
G01*
X161305000Y-53785000D02*
G75*
G02X160105000Y-54985000I-1200000J0D01*
G01*
X161305000Y-52555000D02*
G75*
G02X161805000Y-52055000I500000J0D01*
G01*
X140985000Y-146215000D02*
G75*
G02X142185000Y-145015000I1200000J0D01*
G01*
X140985000Y-147445000D02*
G75*
G02X140485000Y-147945000I-500000J0D01*
G01*
X160105000Y-145015000D02*
G75*
G02X161305000Y-146215000I0J-1200000D01*
G01*
X161805000Y-147945000D02*
G75*
G02X161305000Y-147445000I0J500000D01*
G01*
X106115000Y-147945000D02*
X140485000Y-147945000D01*
X106115000Y-147945000D02*
G75*
G02X104915000Y-146745000I0J1200000D01*
G01*
X140985000Y-53785000D02*
X140985000Y-52555000D01*
X140485000Y-52055000D02*
G75*
G02X140985000Y-52555000I0J-500000D01*
G01*
X142185000Y-54985000D02*
G75*
G02X140985000Y-53785000I0J1200000D01*
G01*
M02*
